{
    "name": "InventoryModel",
    "fields": [
        {
            "fieldName": "name",
            "fieldType": "String",
            "fieldValidateRules": [
                "required",
                "unique",
                "maxlength"
            ],
            "fieldValidateRulesMaxlength": 20
        },
        {
            "fieldName": "vehicleType",
            "fieldType": "VehicleType",
            "fieldValues": "SUV,SEDAN,TRUCK,COUPE,CONVERTABLE,WAGON,HATCHBACK,MINIVAN"
        },
        {
            "fieldName": "desc",
            "fieldType": "String"
        }
    ],
    "relationships": [
        {
            "relationshipType": "many-to-one",
            "otherEntityName": "make",
            "otherEntityRelationshipName": "inventoryModel",
            "relationshipValidateRules": "required",
            "relationshipName": "make",
            "otherEntityField": "name"
        }
    ],
    "changelogDate": "20190616152904",
    "entityTableName": "inventory_model",
    "dto": "mapstruct",
    "pagination": "pagination",
    "service": "serviceClass",
    "jpaMetamodelFiltering": true,
    "fluentMethods": true,
    "clientRootFolder": "",
    "applications": [
        "hipcarz"
    ],
    "searchEngine": "elasticsearch"
}