{
    "name": "Inventory",
    "fields": [
        {
            "fieldName": "vin",
            "fieldType": "String",
            "fieldValidateRules": [
                "required",
                "unique",
                "maxlength"
            ],
            "fieldValidateRulesMaxlength": 17
        },
        {
            "fieldName": "year",
            "fieldType": "Integer",
            "fieldValidateRules": [
                "min",
                "max"
            ],
            "fieldValidateRulesMin": 1900,
            "fieldValidateRulesMax": 2050
        },
        {
            "fieldName": "color",
            "fieldType": "String"
        },
        {
            "fieldName": "comment",
            "fieldType": "String",
            "fieldValidateRules": [
                "maxlength"
            ],
            "fieldValidateRulesMaxlength": 128
        }
    ],
    "relationships": [
        {
            "relationshipType": "many-to-one",
            "otherEntityName": "inventoryModel",
            "otherEntityRelationshipName": "inventory",
            "relationshipValidateRules": "required",
            "relationshipName": "inventoryModel",
            "otherEntityField": "name"
        }
    ],
    "changelogDate": "20190616152905",
    "entityTableName": "inventory",
    "dto": "mapstruct",
    "pagination": "pagination",
    "service": "serviceClass",
    "jpaMetamodelFiltering": true,
    "fluentMethods": true,
    "clientRootFolder": "",
    "applications": [
        "hipcarz"
    ],
    "searchEngine": "elasticsearch"
}