id;name;vehicle_type;jhi_desc;make_id
1;Industrial;MINIVAN;capacitor archive;6
2;Aruba;CONVERTABLE;Louisiana Specialist Home Loan Account;3
3;scalable;WAGON;deliverables reinvent 24 hour;1
4;magenta monitor 1080;SUV;generating Highway Ergonomic;4
5;Lempira;HATCHBACK;Mississippi embrace Developer;9
6;hard drive Robust Ne;HATCHBACK;Small partnerships;3
7;Dynamic;HATCHBACK;Concrete Investment Account Saint Lucia;3
8;Brand;SUV;Auto Loan Account modular Refined;5
9;mint green e-busines;MINIVAN;granular Direct contextually-based;7
10;Jewelery cutting-edg;MINIVAN;Iraq Bedfordshire;7
