id;vin;year;color;comment;inventory_model_id
1;encompassing;1936;lavender;conglomeration;6
2;Kenyan Shilling r;2046;white;Exclusive Moroccan Dirham card;2
3;Supervisor;1940;plum;Berkshire Small Plastic Pants Investor;3
4;Granite Berkshire;1936;plum;Handmade 24/7 Re-contextualized;9
5;Point Orchestrato;1960;sky blue;Licensed hacking installation;2
6;Refined Rubber Gl;1977;gold;turn-key;1
7;Quality;1960;grey;Creative Metal;4
8;Concrete Global S;1938;white;Bacon Designer;6
9;content-based Exe;2045;cyan;Human deposit;4
10;cross-media;2009;fuchsia;SCSI drive THX;9
